waveform/datapath.vcd
$date
	Wed Oct 08 01:43:22 2025
$end
$version
	Icarus Verilog
$end
$timescale
	1s
$end
$scope module tb $end
$var wire 6 ! ds_es_o_opcode [5:0] $end
$var wire 32 " fs_ds_o_pc [31:0] $end
$var wire 32 # write_back_data [31:0] $end
$var reg 1 $ d_clk $end
$var reg 1 % d_i_ce $end
$var reg 1 & d_rst $end
$scope module d $end
$var wire 1 ' d_clk $end
$var wire 1 ( d_i_ce $end
$var wire 1 ) d_rst $end
$var wire 1 * ds_o_alu_src $end
$var wire 1 + ds_o_branch $end
$var wire 1 , ds_o_ce $end
$var wire 32 - ds_o_data_rs [31:0] $end
$var wire 32 . ds_o_data_rt [31:0] $end
$var wire 6 / ds_o_funct [5:0] $end
$var wire 16 0 ds_o_imm [15:0] $end
$var wire 1 1 ds_o_memread $end
$var wire 1 2 ds_o_memtoreg $end
$var wire 1 3 ds_o_memwrite $end
$var wire 6 4 ds_o_opcode [5:0] $end
$var wire 32 5 es_o_alu_pc [31:0] $end
$var wire 32 6 es_o_alu_value [31:0] $end
$var wire 1 7 es_o_ce $end
$var wire 1 8 es_o_change_pc $end
$var wire 6 9 es_o_funct [5:0] $end
$var wire 6 : es_o_opcode [5:0] $end
$var wire 1 ; es_o_zero $end
$var wire 1 < fs_o_ce $end
$var wire 32 = fs_o_instr [31:0] $end
$var wire 32 > fs_o_pc [31:0] $end
$var wire 32 ? ms_o_load_data [31:0] $end
$var wire 32 @ write_back_data [31:0] $end
$var reg 1 A ds_es_o_alu_src $end
$var reg 1 B ds_es_o_branch $end
$var reg 1 C ds_es_o_ce $end
$var reg 32 D ds_es_o_data_rs [31:0] $end
$var reg 32 E ds_es_o_data_rt [31:0] $end
$var reg 6 F ds_es_o_funct [5:0] $end
$var reg 16 G ds_es_o_imm [15:0] $end
$var reg 6 H ds_es_o_opcode [5:0] $end
$var reg 1 I ds_ms_o_memread $end
$var reg 1 J ds_ms_o_memwrite $end
$var reg 32 K ds_ms_o_pc [31:0] $end
$var reg 1 L ds_wb_o_memtoreg $end
$var reg 1 M es_is_change_pc $end
$var reg 32 N es_ms_alu_value [31:0] $end
$var reg 32 O es_ms_o_alu_pc [31:0] $end
$var reg 1 P es_ms_o_ce $end
$var reg 6 Q es_ms_o_funct [5:0] $end
$var reg 6 R es_ms_o_opcode [5:0] $end
$var reg 1 S es_ms_o_zero $end
$var reg 1 T fs_ds_o_ce $end
$var reg 32 U fs_ds_o_instr [31:0] $end
$var reg 32 V fs_ds_o_pc [31:0] $end
$var reg 32 W ms_wb_load_data [31:0] $end
$scope module is $end
$var wire 1 ' f_clk $end
$var wire 1 X f_i_ack $end
$var wire 1 ( f_i_ce $end
$var wire 1 Y f_i_change_pc $end
$var wire 32 Z f_i_instr [31:0] $end
$var wire 1 [ f_i_last $end
$var wire 32 \ f_i_pc [31:0] $end
$var wire 1 ) f_rst $end
$var wire 32 ] temp_pc [31:0] $end
$var reg 32 ^ cur_pc [31:0] $end
$var reg 1 _ f_o_ce $end
$var reg 32 ` f_o_instr [31:0] $end
$var reg 32 a f_o_pc [31:0] $end
$var reg 1 b f_o_syn $end
$scope module t $end
$var wire 1 ' t_clk $end
$var wire 1 c t_i_syn $end
$var wire 1 ) t_rst $end
$var integer 32 d counter [31:0] $end
$var reg 1 e t_o_ack $end
$var reg 32 f t_o_instr [31:0] $end
$var reg 1 g t_o_last $end
$upscope $end
$upscope $end
$scope module ds $end
$var wire 5 h d_o_addr_rs [4:0] $end
$var wire 5 i d_o_addr_rt [4:0] $end
$var wire 1 j d_r_o_reg_dst $end
$var wire 1 k d_r_o_reg_wr $end
$var wire 1 ' ds_clk $end
$var wire 5 l ds_i_addr_rd [4:0] $end
$var wire 1 m ds_i_ce $end
$var wire 32 n ds_i_data_rd [31:0] $end
$var wire 32 o ds_i_instr [31:0] $end
$var wire 1 * ds_o_alu_src $end
$var wire 1 + ds_o_branch $end
$var wire 1 , ds_o_ce $end
$var wire 32 p ds_o_data_rs [31:0] $end
$var wire 32 q ds_o_data_rt [31:0] $end
$var wire 6 r ds_o_funct [5:0] $end
$var wire 16 s ds_o_imm [15:0] $end
$var wire 1 1 ds_o_memread $end
$var wire 1 2 ds_o_memtoreg $end
$var wire 1 3 ds_o_memwrite $end
$var wire 6 t ds_o_opcode [5:0] $end
$var wire 1 ) ds_rst $end
$var wire 5 u write_register [4:0] $end
$scope module d $end
$var wire 1 ' d_clk $end
$var wire 1 m d_i_ce $end
$var wire 6 v d_i_funct [5:0] $end
$var wire 32 w d_i_instr [31:0] $end
$var wire 6 x d_i_opcode [5:0] $end
$var wire 1 ) d_rst $end
$var wire 6 y funct [5:0] $end
$var wire 1 z funct_add $end
$var wire 1 { funct_and $end
$var wire 1 | funct_or $end
$var wire 1 } funct_sub $end
$var wire 1 ~ funct_xor $end
$var wire 16 !" imm [15:0] $end
$var wire 1 "" op_addi $end
$var wire 1 #" op_addiu $end
$var wire 1 $" op_andi $end
$var wire 1 %" op_beq $end
$var wire 1 &" op_bne $end
$var wire 1 '" op_load $end
$var wire 1 (" op_ori $end
$var wire 1 )" op_rtype $end
$var wire 1 *" op_slti $end
$var wire 1 +" op_sltiu $end
$var wire 1 ," op_store $end
$var wire 1 -" op_xori $end
$var wire 6 ." opcode [5:0] $end
$var wire 5 /" rd [4:0] $end
$var wire 5 0" rs [4:0] $end
$var wire 5 1" rt [4:0] $end
$var reg 5 2" d_o_addr_rd [4:0] $end
$var reg 5 3" d_o_addr_rs [4:0] $end
$var reg 5 4" d_o_addr_rt [4:0] $end
$var reg 1 5" d_o_alu_src $end
$var reg 1 6" d_o_branch $end
$var reg 1 7" d_o_ce $end
$var reg 6 8" d_o_funct [5:0] $end
$var reg 16 9" d_o_imm [15:0] $end
$var reg 1 :" d_o_memread $end
$var reg 1 ;" d_o_memtoreg $end
$var reg 1 <" d_o_memwrite $end
$var reg 6 =" d_o_opcode [5:0] $end
$var reg 1 >" d_o_reg_dst $end
$var reg 1 ?" d_o_reg_wr $end
$upscope $end
$scope module r $end
$var wire 5 @" r_addr_in [4:0] $end
$var wire 5 A" r_addr_out1 [4:0] $end
$var wire 5 B" r_addr_out2 [4:0] $end
$var wire 1 ' r_clk $end
$var wire 32 C" r_data_in [31:0] $end
$var wire 32 D" r_data_out1 [31:0] $end
$var wire 32 E" r_data_out2 [31:0] $end
$var wire 1 ) r_rst $end
$var wire 1 k r_wr_en $end
$var integer 32 F" i [31:0] $end
$upscope $end
$upscope $end
$scope module es $end
$var wire 32 G" alu_pc [31:0] $end
$var wire 32 H" alu_value [31:0] $end
$var wire 1 I" change_pc $end
$var wire 1 J" done $end
$var wire 1 ' es_clk $end
$var wire 6 K" es_i_alu_funct [5:0] $end
$var wire 6 L" es_i_alu_op [5:0] $end
$var wire 1 M" es_i_alu_src $end
$var wire 1 N" es_i_branch $end
$var wire 1 O" es_i_ce $end
$var wire 32 P" es_i_data_rs [31:0] $end
$var wire 32 Q" es_i_data_rt [31:0] $end
$var wire 16 R" es_i_imm [15:0] $end
$var wire 32 S" es_i_pc [31:0] $end
$var wire 1 ) es_rst $end
$var wire 1 T" temp_zero $end
$var reg 5 U" alu_control [4:0] $end
$var reg 32 V" es_o_alu_pc [31:0] $end
$var reg 32 W" es_o_alu_value [31:0] $end
$var reg 1 X" es_o_ce $end
$var reg 1 Y" es_o_change_pc $end
$var reg 6 Z" es_o_funct [5:0] $end
$var reg 6 [" es_o_opcode [5:0] $end
$var reg 1 \" es_o_zero $end
$scope module a $end
$var wire 1 M" a_i_alu_src $end
$var wire 32 ]" a_i_data_rs [31:0] $end
$var wire 32 ^" a_i_data_rt [31:0] $end
$var wire 5 _" a_i_funct [4:0] $end
$var wire 16 `" a_i_imm [15:0] $end
$var wire 32 a" a_i_pc [31:0] $end
$var wire 32 b" a_imm [31:0] $end
$var wire 32 c" a_o_data_2 [31:0] $end
$var wire 1 d" funct_add $end
$var wire 1 e" funct_addu $end
$var wire 1 f" funct_and $end
$var wire 1 g" funct_beq $end
$var wire 1 h" funct_bne $end
$var wire 1 i" funct_eq $end
$var wire 1 j" funct_ge $end
$var wire 1 k" funct_geu $end
$var wire 1 l" funct_neq $end
$var wire 1 m" funct_or $end
$var wire 1 n" funct_sll $end
$var wire 1 o" funct_slt $end
$var wire 1 p" funct_sltu $end
$var wire 1 q" funct_sra $end
$var wire 1 r" funct_srl $end
$var wire 1 s" funct_sub $end
$var wire 1 t" funct_xor $end
$var reg 1 u" a_o_change_pc $end
$var reg 32 v" alu_pc [31:0] $end
$var reg 32 w" alu_value [31:0] $end
$var reg 1 x" done $end
$upscope $end
$upscope $end
$scope module m $end
$var wire 32 y" alu_value_addr [31:0] $end
$var wire 1 ' m_clk $end
$var wire 1 z" m_i_ce $end
$var wire 32 {" m_i_store_data [31:0] $end
$var wire 1 |" m_rd_en $end
$var wire 1 ) m_rst $end
$var wire 1 }" m_wr_en $end
$var integer 32 ~" i [31:0] $end
$var reg 32 !# m_o_load_data [31:0] $end
$upscope $end
$upscope $end
$scope task reset $end
$var integer 32 "# counter [31:0] $end
$upscope $end
$upscope $end
$enddefinitions $end
#0
$dumpvars
b10 "#
b0 !#
b100000 ~"
0}"
0|"
b0 {"
0z"
b0 y"
1x"
b0 w"
b0 v"
0u"
0t"
0s"
0r"
0q"
0p"
0o"
0n"
0m"
0l"
0k"
0j"
0i"
0h"
0g"
0f"
0e"
1d"
b0 c"
b0 b"
b0 a"
b0 `"
b0 _"
b0 ^"
b0 ]"
0\"
b0 ["
b0 Z"
0Y"
0X"
b0 W"
b0 V"
b0 U"
1T"
b0 S"
b0 R"
b0 Q"
b0 P"
0O"
0N"
0M"
b0 L"
b0 K"
1J"
0I"
b0 H"
b0 G"
b100000 F"
b0 E"
b0 D"
b0 C"
b0 B"
b0 A"
b0 @"
0?"
0>"
b0 ="
0<"
0;"
0:"
b0 9"
b0 8"
07"
06"
05"
b0 4"
b0 3"
b0 2"
b0 1"
b0 0"
b0 /"
b0 ."
0-"
0,"
0+"
0*"
1)"
0("
0'"
0&"
0%"
0$"
0#"
0""
b0 !"
0~
0}
0|
0{
0z
b0 y
b0 x
b0 w
b0 v
b0 u
b0 t
b0 s
b0 r
b0 q
b0 p
b0 o
b0 n
0m
b0 l
0k
0j
b0 i
b0 h
0g
b0 f
0e
b0 d
0c
0b
b0 a
b0 `
0_
b0 ^
b100 ]
b0 \
0[
b0 Z
0Y
0X
b0 W
b0 V
b0 U
0T
0S
b0 R
b0 Q
0P
b0 O
b0 N
0M
0L
b0 K
0J
0I
b0 H
b0 G
b0 F
b0 E
b0 D
0C
0B
0A
b0 @
b0 ?
b0 >
b0 =
0<
0;
b0 :
b0 9
08
07
b0 6
b0 5
b0 4
03
02
01
b0 0
b0 /
b0 .
b0 -
0,
0+
0*
0)
x(
0'
0&
x%
0$
b0 #
b0 "
b0 !
$end
#5
b100000 ~"
b100000 F"
1$
1'
#10
0$
0'
#15
1&
1)
1$
1'
#20
0$
0'
#25
1b
1c
1%
1(
1$
1'
#30
0$
0'
#35
1e
1X
b1 d
b10000110000100000100000 f
b10000110000100000100000 Z
1$
1'
#40
0$
0'
#45
b1000 ]
1_
1<
b100 ^
b10000110000100000100000 `
b10000110000100000100000 =
b10 d
b101001100010000000100001 f
b101001100010000000100001 Z
1$
1'
#50
0$
0'
#55
b1100 ]
1z
b100000 v
b10 0"
b11 1"
b1 /"
b100000 y
b100000100000 !"
b11 d
b1000010010011100000100010 f
b1000010010011100000100010 Z
b1000 ^
b100 a
b100 >
b101001100010000000100001 `
b101001100010000000100001 =
1T
1m
b10000110000100000100000 U
b10000110000100000100000 o
b10000110000100000100000 w
1$
1'
#60
0$
0'
#65
b10000 ]
0z
1}
b100001 v
b101 0"
b110 1"
b100 /"
b100001 y
b10000000100001 !"
b1 u
b1 @"
b100 V
b100 "
b101001100010000000100001 U
b101001100010000000100001 o
b101001100010000000100001 w
1?"
1k
1>"
1j
17"
1,
b100000 8"
b100000 /
b100000 r
b1 2"
b1 l
b11 4"
b11 .
b11 q
b11 E"
b11 i
b11 B"
b10 3"
b10 -
b10 p
b10 D"
b10 h
b10 A"
b1100 ^
b1000 a
b1000 >
b1000010010011100000100010 `
b1000010010011100000100010 =
b100 d
b1000100101000000100011 f
b1000100101000000100011 Z
1$
1'
#70
0$
0'
#75
b10100 ]
0T"
b100 u
b100 @"
0}
1{
b100010 v
b1000 0"
b1001 1"
b111 /"
b100010 y
b11100000100010 !"
b11 c"
b101 w"
b101 H"
1x"
1J"
b101 d
b10000010000010000000001100100 f
b10000010000010000000001100100 Z
b10000 ^
b1100 a
b1100 >
b1000100101000000100011 `
b1000100101000000100011 =
b100001 8"
b100001 /
b100001 r
b100 2"
b100 l
b110 4"
b110 .
b110 q
b110 E"
b110 i
b110 B"
b101 3"
b101 -
b101 p
b101 D"
b101 h
b101 A"
b1000 V
b1000 "
b1000010010011100000100010 U
b1000010010011100000100010 o
b1000010010011100000100010 w
b100 K
b100 S"
b100 a"
1C
1O"
b11 E
b11 Q"
b11 ^"
b11 {"
b10 D
b10 P"
b10 ]"
b100000 F
b100000 K"
1$
1'
#80
0$
0'
#85
b11000 ]
b110 c"
1x"
1J"
b11111111111111111111111111111111 w"
b11111111111111111111111111111111 H"
b1 U"
b1 _"
0d"
1s"
0{
1|
b100011 v
b1 0"
b10 1"
b1010 /"
b100011 y
b101000000100011 !"
b111 u
b111 @"
b1000 K
b1000 S"
b1000 a"
b110 E
b110 Q"
b110 ^"
b110 {"
b101 D
b101 P"
b101 ]"
b100001 F
b100001 K"
b1100 V
b1100 "
b1000100101000000100011 U
b1000100101000000100011 o
b1000100101000000100011 w
0X"
07
b100000 Z"
b100000 9
b101 W"
b101 6
b100010 8"
b100010 /
b100010 r
b111 2"
b111 l
b1001 4"
b1001 .
b1001 q
b1001 E"
b1001 i
b1001 B"
b1000 3"
b1000 -
b1000 p
b1000 D"
b1000 h
b1000 A"
b10100 ^
b10000 a
b10000 >
b10000010000010000000001100100 `
b10000010000010000000001100100 =
b0 d
1g
1[
b1101011010110000000000010000 f
b1101011010110000000000010000 Z
1$
1'
#90
0$
0'
#95
b11100 ]
0T"
b1010 u
b1010 @"
0)"
1""
b100 x
0|
1~
b100100 v
b10 0"
b1 1"
b0 /"
b100 ."
b100100 y
b1100100 !"
b1001 c"
1x"
1J"
b1000 w"
b1000 H"
1f"
b10 U"
b10 _"
0d"
0s"
b101 #
b101 @
b101 n
b101 C"
0e
0X
b1 d
0g
0[
b10000110000100000100000 f
b10000110000100000100000 Z
b11000 ^
b10100 a
b10100 >
b1101011010110000000000010000 `
b1101011010110000000000010000 =
0b
0c
b100011 8"
b100011 /
b100011 r
b1010 2"
b1010 l
b10 4"
b10 .
b10 q
b10 E"
b10 i
b10 B"
b1 3"
b0 -
b0 p
b0 D"
b1 h
b1 A"
0X"
07
b100001 Z"
b100001 9
b11111111111111111111111111111111 W"
b11111111111111111111111111111111 6
b10000 V
b10000 "
b10000010000010000000001100100 U
b10000010000010000000001100100 o
b10000010000010000000001100100 w
b1100 K
b1100 S"
b1100 a"
b1001 E
b1001 Q"
b1001 ^"
b1001 {"
b1000 D
b1000 P"
b1000 ]"
b100010 F
b100010 K"
b100000 Q
b101 N
b101 y"
1$
1'
#100
0$
0'
#105
b11111111111111111111111111111111 #
b11111111111111111111111111111111 @
b11111111111111111111111111111111 n
b11111111111111111111111111111111 C"
b10 c"
1x"
1J"
b10 w"
b10 H"
1m"
b11 U"
b11 _"
0d"
0f"
1%"
0""
b11 x
0~
b10000 v
b1011 0"
b1011 1"
b11 ."
b10000 y
b10000 !"
b1 u
b1 @"
b100001 Q
b11111111111111111111111111111111 N
b11111111111111111111111111111111 y"
b10000 K
b10000 S"
b10000 a"
b10 E
b10 Q"
b10 ^"
b10 {"
b0 D
b0 P"
b0 ]"
b100011 F
b100011 K"
b10100 V
b10100 "
b1101011010110000000000010000 U
b1101011010110000000000010000 o
b1101011010110000000000010000 w
0X"
07
b100010 Z"
b100010 9
b1000 W"
b1000 6
15"
1*
0>"
0j
b1100100 9"
b1100100 0
b1100100 s
b0 8"
b0 /
b0 r
b100 ="
b100 4
b100 t
b0 2"
b0 l
b1 4"
b0 .
b0 q
b0 E"
b1 i
b1 B"
b10 3"
b10 -
b10 p
b10 D"
b10 h
b10 A"
0_
0<
1b
1c
1$
1'
#110
0$
0'
#115
b1011 u
b1011 @"
b1100100 c"
1x"
1J"
b1100110 w"
b1100110 H"
b0 U"
b0 _"
1d"
0m"
b1000 #
b1000 @
b1000 n
b1000 C"
1e
1X
b10 d
b101001100010000000100001 f
b101001100010000000100001 Z
0?"
0k
05"
0*
16"
1+
b10000 9"
b10000 0
b10000 s
b11 ="
b11 4
b11 t
b1011 4"
b1011 i
b1011 B"
b1011 3"
b1011 -
b1011 p
b1011 D"
b1011 h
b1011 A"
b1011 .
b1011 q
b1011 E"
0X"
07
b100011 Z"
b100011 9
b10 W"
b10 6
0T
0m
b10100 K
b10100 S"
b10100 a"
1A
1M"
b1100100 G
b1100100 R"
b1100100 `"
b1100100 b"
b0 E
b0 Q"
b0 ^"
b0 {"
b10 D
b10 P"
b10 ]"
b0 F
b0 K"
b100 H
b100 !
b100 L"
b100010 Q
b1000 N
b1000 y"
1$
1'
#120
0$
0'
#125
1T"
b100000 ]
b10 #
b10 @
b10 n
b10 C"
b1011 c"
1u"
1I"
b1010100 v"
b1010100 G"
1x"
1J"
b0 w"
b0 H"
b1111 U"
b1111 _"
0d"
1g"
b0 u
b0 @"
b100011 Q
b10 N
b10 y"
0A
0M"
1B
1N"
b10000 G
b10000 R"
b10000 `"
b10000 b"
b1011 E
b1011 Q"
b1011 ^"
b1011 {"
b1011 D
b1011 P"
b1011 ]"
b11 H
b11 !
b11 L"
0X"
07
b0 Z"
b0 9
b100 ["
b100 :
b1100110 W"
b1100110 6
06"
0+
07"
0,
b0 9"
b0 0
b0 s
b0 ="
b0 4
b0 t
b0 4"
b0 .
b0 q
b0 E"
b0 i
b0 B"
b0 3"
b0 -
b0 p
b0 D"
b0 h
b0 A"
1_
1<
b11100 ^
b11000 a
b11000 >
b101001100010000000100001 `
b101001100010000000100001 =
b11 d
b1000010010011100000100010 f
b1000010010011100000100010 Z
1$
1'
#130
0$
0'
#135
b100100 ]
1T"
1)"
0%"
b0 x
1}
b100001 v
b101 0"
b110 1"
b100 /"
b0 ."
b100001 y
b10000000100001 !"
b0 c"
b0 w"
b0 H"
0u"
0I"
1x"
1J"
b0 v"
b0 G"
b0 U"
b0 _"
1d"
0g"
b1100110 #
b1100110 @
b1100110 n
b1100110 C"
b100 d
b1000100101000000100011 f
b1000100101000000100011 Z
b100000 ^
b11100 a
b11100 >
b1000010010011100000100010 `
b1000010010011100000100010 =
1Y"
18
b1010100 V"
b1010100 5
1\"
1;
0X"
07
b11 ["
b11 :
b0 W"
b0 6
b11000 V
b11000 "
1T
1m
b101001100010000000100001 U
b101001100010000000100001 o
b101001100010000000100001 w
0B
0N"
0C
0O"
b0 G
b0 R"
b0 `"
b0 b"
b0 E
b0 Q"
b0 ^"
b0 {"
b0 D
b0 P"
b0 ]"
b0 H
b0 !
b0 L"
b0 Q
b100 R
b1100110 N
b1100110 y"
1$
1'
#140
0$
0'
#145
b1010100 ]
b0 #
b0 @
b0 n
b0 C"
1x"
1J"
0}
1{
b100010 v
b1000 0"
b1001 1"
b111 /"
b100010 y
b11100000100010 !"
b100 u
b100 @"
1M
1Y
1S
b11 R
b1010100 O
b1010100 \
b0 N
b0 y"
b11000 K
b11000 S"
b11000 a"
b11100 V
b11100 "
b1000010010011100000100010 U
b1000010010011100000100010 o
b1000010010011100000100010 w
0Y"
08
b0 ["
b0 :
0\"
0;
b0 V"
b0 5
1?"
1k
1>"
1j
17"
1,
b100001 8"
b100001 /
b100001 r
b100 2"
b100 l
b110 4"
b110 .
b110 q
b110 E"
b110 i
b110 B"
b101 3"
b101 -
b101 p
b101 D"
b101 h
b101 A"
b100100 ^
b100000 a
b100000 >
b1000100101000000100011 `
b1000100101000000100011 =
b101 d
b10000010000010000000001100100 f
b10000010000010000000001100100 Z
1$
1'
#150
0$
0'
#155
0T"
b1011000 ]
b111 u
b111 @"
0{
1|
b100011 v
b1 0"
b10 1"
b1010 /"
b100011 y
b101000000100011 !"
b110 c"
b11111111111111111111111111111111 w"
b11111111111111111111111111111111 H"
1x"
1J"
b1 U"
b1 _"
0d"
1s"
b0 d
1g
1[
b1101011010110000000000010000 f
b1101011010110000000000010000 Z
b1010100 ^
b100100 a
b100100 >
b10000010000010000000001100100 `
b10000010000010000000001100100 =
b100010 8"
b100010 /
b100010 r
b111 2"
b111 l
b1001 4"
b1001 .
b1001 q
b1001 E"
b1001 i
b1001 B"
b1000 3"
b1000 -
b1000 p
b1000 D"
b1000 h
b1000 A"
b100000 V
b100000 "
b1000100101000000100011 U
b1000100101000000100011 o
b1000100101000000100011 w
b11100 K
b11100 S"
b11100 a"
1C
1O"
b110 E
b110 Q"
b110 ^"
b110 {"
b101 D
b101 P"
b101 ]"
b100001 F
b100001 K"
0M
0Y
0S
b0 R
b0 O
b0 \
1$
1'
#160
0$
0'
#165
0T"
b1011100 ]
b1001 c"
1x"
1J"
b1000 w"
b1000 H"
1f"
b10 U"
b10 _"
0d"
0s"
0)"
1""
b100 x
0|
1~
b100100 v
b10 0"
b1 1"
b0 /"
b100 ."
b100100 y
b1100100 !"
b1010 u
b1010 @"
b100000 K
b100000 S"
b100000 a"
b1001 E
b1001 Q"
b1001 ^"
b1001 {"
b1000 D
b1000 P"
b1000 ]"
b100010 F
b100010 K"
b100100 V
b100100 "
b10000010000010000000001100100 U
b10000010000010000000001100100 o
b10000010000010000000001100100 w
0X"
07
b100001 Z"
b100001 9
b11111111111111111111111111111111 W"
b11111111111111111111111111111111 6
b100011 8"
b100011 /
b100011 r
b1010 2"
b1010 l
b10 4"
b10 .
b10 q
b10 E"
b10 i
b10 B"
b1 3"
b11111111111111111111111111111111 -
b11111111111111111111111111111111 p
b11111111111111111111111111111111 D"
b1 h
b1 A"
b1011000 ^
b1010100 a
b1010100 >
b1101011010110000000000010000 `
b1101011010110000000000010000 =
0b
0c
0e
0X
b1 d
0g
0[
b10000110000100000100000 f
b10000110000100000100000 Z
1$
1'
#170
0$
0'
#175
b1 u
b1 @"
1%"
0""
b11 x
0~
b10000 v
b1011 0"
b1011 1"
b11 ."
b10000 y
b10000 !"
b10 c"
1x"
1J"
b11111111111111111111111111111111 w"
b11111111111111111111111111111111 H"
1m"
b11 U"
b11 _"
0d"
0f"
b11111111111111111111111111111111 #
b11111111111111111111111111111111 @
b11111111111111111111111111111111 n
b11111111111111111111111111111111 C"
0_
0<
1b
1c
15"
1*
0>"
0j
b1100100 9"
b1100100 0
b1100100 s
b0 8"
b0 /
b0 r
b100 ="
b100 4
b100 t
b0 2"
b0 l
b1 4"
b11111111111111111111111111111111 .
b11111111111111111111111111111111 q
b11111111111111111111111111111111 E"
b1 i
b1 B"
b10 3"
b10 -
b10 p
b10 D"
b10 h
b10 A"
0X"
07
b100010 Z"
b100010 9
b1000 W"
b1000 6
b1010100 V
b1010100 "
b1101011010110000000000010000 U
b1101011010110000000000010000 o
b1101011010110000000000010000 w
b100100 K
b100100 S"
b100100 a"
b10 E
b10 Q"
b10 ^"
b10 {"
b11111111111111111111111111111111 D
b11111111111111111111111111111111 P"
b11111111111111111111111111111111 ]"
b100011 F
b100011 K"
b100001 Q
b11111111111111111111111111111111 N
b11111111111111111111111111111111 y"
1$
1'
#180
0$
0'
#185
b1000 #
b1000 @
b1000 n
b1000 C"
b1100100 c"
1x"
1J"
b1100110 w"
b1100110 H"
b0 U"
b0 _"
1d"
0m"
b1011 u
b1011 @"
b100010 Q
b1000 N
b1000 y"
b1010100 K
b1010100 S"
b1010100 a"
1A
1M"
b1100100 G
b1100100 R"
b1100100 `"
b1100100 b"
b11111111111111111111111111111111 E
b11111111111111111111111111111111 Q"
b11111111111111111111111111111111 ^"
b11111111111111111111111111111111 {"
b10 D
b10 P"
b10 ]"
b0 F
b0 K"
b100 H
b100 !
b100 L"
0T
0m
0X"
07
b100011 Z"
b100011 9
b11111111111111111111111111111111 W"
b11111111111111111111111111111111 6
0?"
0k
05"
0*
16"
1+
b10000 9"
b10000 0
b10000 s
b11 ="
b11 4
b11 t
b1011 4"
b1011 .
b1011 q
b1011 E"
b1011 i
b1011 B"
b1011 3"
b1011 -
b1011 p
b1011 D"
b1011 h
b1011 A"
1e
1X
b10 d
b101001100010000000100001 f
b101001100010000000100001 Z
1$
1'
#190
0$
0'
#195
b1100000 ]
1T"
b0 u
b0 @"
b1011 c"
1u"
1I"
b10010100 v"
b10010100 G"
1x"
1J"
b0 w"
b0 H"
b1111 U"
b1111 _"
0d"
1g"
b11111111111111111111111111111111 #
b11111111111111111111111111111111 @
b11111111111111111111111111111111 n
b11111111111111111111111111111111 C"
b11 d
b1000010010011100000100010 f
b1000010010011100000100010 Z
1_
1<
b1011100 ^
b1011000 a
b1011000 >
b101001100010000000100001 `
b101001100010000000100001 =
06"
0+
07"
0,
b0 9"
b0 0
b0 s
b0 ="
b0 4
b0 t
b0 4"
b0 .
b0 q
b0 E"
b0 i
b0 B"
b0 3"
b0 -
b0 p
b0 D"
b0 h
b0 A"
0X"
07
b0 Z"
b0 9
b100 ["
b100 :
b1100110 W"
b1100110 6
0A
0M"
1B
1N"
b10000 G
b10000 R"
b10000 `"
b10000 b"
b1011 E
b1011 Q"
b1011 ^"
b1011 {"
b1011 D
b1011 P"
b1011 ]"
b11 H
b11 !
b11 L"
b100011 Q
b11111111111111111111111111111111 N
b11111111111111111111111111111111 y"
1$
1'
#200
0$
0'
#205
1T"
b1100100 ]
b1100110 #
b1100110 @
b1100110 n
b1100110 C"
b0 c"
b0 w"
b0 H"
0u"
0I"
1x"
1J"
b0 v"
b0 G"
b0 U"
b0 _"
1d"
0g"
1)"
0%"
b0 x
1}
b100001 v
b101 0"
b110 1"
b100 /"
b0 ."
b100001 y
b10000000100001 !"
b0 Q
b100 R
b1100110 N
b1100110 y"
0B
0N"
0C
0O"
b0 G
b0 R"
b0 `"
b0 b"
b0 E
b0 Q"
b0 ^"
b0 {"
b0 D
b0 P"
b0 ]"
b0 H
b0 !
b0 L"
b1011000 V
b1011000 "
1T
1m
b101001100010000000100001 U
b101001100010000000100001 o
b101001100010000000100001 w
1Y"
18
b10010100 V"
b10010100 5
1\"
1;
0X"
07
b11 ["
b11 :
b0 W"
b0 6
b1100000 ^
b1011100 a
b1011100 >
b1000010010011100000100010 `
b1000010010011100000100010 =
b100 d
b1000100101000000100011 f
b1000100101000000100011 Z
1$
1'
#210
0$
0'
#215
b10010100 ]
b100 u
b100 @"
0}
1{
b100010 v
b1000 0"
b1001 1"
b111 /"
b100010 y
b11100000100010 !"
1x"
1J"
b0 #
b0 @
b0 n
b0 C"
b101 d
b10000010000010000000001100100 f
b10000010000010000000001100100 Z
b1100100 ^
b1100000 a
b1100000 >
b1000100101000000100011 `
b1000100101000000100011 =
1?"
1k
1>"
1j
17"
1,
b100001 8"
b100001 /
b100001 r
b100 2"
b100 l
b110 4"
b110 .
b110 q
b110 E"
b110 i
b110 B"
b101 3"
b101 -
b101 p
b101 D"
b101 h
b101 A"
0Y"
08
b0 ["
b0 :
0\"
0;
b0 V"
b0 5
b1011100 V
b1011100 "
b1000010010011100000100010 U
b1000010010011100000100010 o
b1000010010011100000100010 w
b1011000 K
b1011000 S"
b1011000 a"
1M
1Y
1S
b11 R
b10010100 O
b10010100 \
b0 N
b0 y"
1$
1'
#220
0$
0'
#225
b10011000 ]
0T"
b110 c"
b11111111111111111111111111111111 w"
b11111111111111111111111111111111 H"
1x"
1J"
b1 U"
b1 _"
0d"
1s"
0{
1|
b100011 v
b1 0"
b10 1"
b1010 /"
b100011 y
b101000000100011 !"
b111 u
b111 @"
0M
0Y
0S
b0 R
b0 O
b0 \
b1011100 K
b1011100 S"
b1011100 a"
1C
1O"
b110 E
b110 Q"
b110 ^"
b110 {"
b101 D
b101 P"
b101 ]"
b100001 F
b100001 K"
b1100000 V
b1100000 "
b1000100101000000100011 U
b1000100101000000100011 o
b1000100101000000100011 w
b100010 8"
b100010 /
b100010 r
b111 2"
b111 l
b1001 4"
b1001 .
b1001 q
b1001 E"
b1001 i
b1001 B"
b1000 3"
b1000 -
b1000 p
b1000 D"
b1000 h
b1000 A"
b10010100 ^
b1100100 a
b1100100 >
b10000010000010000000001100100 `
b10000010000010000000001100100 =
b0 d
1g
1[
b1101011010110000000000010000 f
b1101011010110000000000010000 Z
1$
1'
#230
0$
0'
