waveform/datapath.vcd
$date
	Fri Oct 10 01:02:49 2025
$end
$version
	Icarus Verilog
$end
$timescale
	1s
$end
$scope module tb $end
$var wire 6 ! ds_es_o_opcode [5:0] $end
$var wire 32 " fs_ds_o_pc [31:0] $end
$var wire 32 # write_back_data [31:0] $end
$var reg 1 $ d_clk $end
$var reg 1 % d_i_ce $end
$var reg 1 & d_rst $end
$scope module d $end
$var wire 1 ' d_clk $end
$var wire 1 ( d_i_ce $end
$var wire 1 ) d_rst $end
$var wire 1 * ds_o_alu_src $end
$var wire 1 + ds_o_branch $end
$var wire 1 , ds_o_ce $end
$var wire 32 - ds_o_data_rs [31:0] $end
$var wire 32 . ds_o_data_rt [31:0] $end
$var wire 6 / ds_o_funct [5:0] $end
$var wire 16 0 ds_o_imm [15:0] $end
$var wire 1 1 ds_o_memread $end
$var wire 1 2 ds_o_memtoreg $end
$var wire 1 3 ds_o_memwrite $end
$var wire 6 4 ds_o_opcode [5:0] $end
$var wire 32 5 es_o_alu_pc [31:0] $end
$var wire 32 6 es_o_alu_value [31:0] $end
$var wire 1 7 es_o_ce $end
$var wire 1 8 es_o_change_pc $end
$var wire 6 9 es_o_funct [5:0] $end
$var wire 6 : es_o_opcode [5:0] $end
$var wire 1 ; es_o_zero $end
$var wire 1 < fs_ds_o_ce $end
$var wire 32 = fs_ds_o_instr [31:0] $end
$var wire 32 > fs_ds_o_pc [31:0] $end
$var wire 32 ? ms_wb_load_data [31:0] $end
$var wire 32 @ write_back_data [31:0] $end
$var reg 1 A ds_es_o_alu_src $end
$var reg 1 B ds_es_o_branch $end
$var reg 1 C ds_es_o_ce $end
$var reg 32 D ds_es_o_data_rs [31:0] $end
$var reg 32 E ds_es_o_data_rt [31:0] $end
$var reg 6 F ds_es_o_funct [5:0] $end
$var reg 16 G ds_es_o_imm [15:0] $end
$var reg 6 H ds_es_o_opcode [5:0] $end
$var reg 1 I ds_ms_o_memread $end
$var reg 1 J ds_ms_o_memwrite $end
$var reg 32 K ds_ms_o_pc [31:0] $end
$var reg 1 L ds_wb_o_memtoreg $end
$var reg 1 M es_is_o_change_pc $end
$var reg 32 N es_ms_alu_value [31:0] $end
$var reg 32 O es_ms_o_alu_pc [31:0] $end
$var reg 1 P es_ms_o_ce $end
$var reg 6 Q es_ms_o_funct [5:0] $end
$var reg 6 R es_ms_o_opcode [5:0] $end
$var reg 1 S es_ms_o_zero $end
$scope module is $end
$var wire 1 ' f_clk $end
$var wire 1 T f_i_ack $end
$var wire 1 ( f_i_ce $end
$var wire 1 U f_i_change_pc $end
$var wire 32 V f_i_instr [31:0] $end
$var wire 1 W f_i_last $end
$var wire 32 X f_i_pc [31:0] $end
$var wire 1 ) f_rst $end
$var reg 1 Y f_o_ce $end
$var reg 32 Z f_o_instr [31:0] $end
$var reg 32 [ f_o_pc [31:0] $end
$var reg 1 \ f_o_syn $end
$scope module t $end
$var wire 1 ' t_clk $end
$var wire 1 ] t_i_syn $end
$var wire 1 ) t_rst $end
$var integer 32 ^ counter [31:0] $end
$var reg 1 _ t_o_ack $end
$var reg 32 ` t_o_instr [31:0] $end
$var reg 1 a t_o_last $end
$upscope $end
$upscope $end
$scope module ds $end
$var wire 5 b d_o_addr_rs [4:0] $end
$var wire 5 c d_o_addr_rt [4:0] $end
$var wire 1 d d_r_o_reg_dst $end
$var wire 1 e d_r_o_reg_wr $end
$var wire 1 ' ds_clk $end
$var wire 5 f ds_i_addr_rd [4:0] $end
$var wire 1 < ds_i_ce $end
$var wire 32 g ds_i_data_rd [31:0] $end
$var wire 32 h ds_i_instr [31:0] $end
$var wire 1 * ds_o_alu_src $end
$var wire 1 + ds_o_branch $end
$var wire 1 , ds_o_ce $end
$var wire 32 i ds_o_data_rs [31:0] $end
$var wire 32 j ds_o_data_rt [31:0] $end
$var wire 6 k ds_o_funct [5:0] $end
$var wire 16 l ds_o_imm [15:0] $end
$var wire 1 1 ds_o_memread $end
$var wire 1 2 ds_o_memtoreg $end
$var wire 1 3 ds_o_memwrite $end
$var wire 6 m ds_o_opcode [5:0] $end
$var wire 1 ) ds_rst $end
$var wire 5 n write_register [4:0] $end
$scope module d $end
$var wire 1 < d_i_ce $end
$var wire 6 o d_i_funct [5:0] $end
$var wire 32 p d_i_instr [31:0] $end
$var wire 6 q d_i_opcode [5:0] $end
$var wire 6 r funct [5:0] $end
$var wire 1 s funct_add $end
$var wire 1 t funct_and $end
$var wire 1 u funct_or $end
$var wire 1 v funct_sub $end
$var wire 1 w funct_xor $end
$var wire 16 x imm [15:0] $end
$var wire 1 y op_addi $end
$var wire 1 z op_addiu $end
$var wire 1 { op_andi $end
$var wire 1 | op_beq $end
$var wire 1 } op_bne $end
$var wire 1 ~ op_load $end
$var wire 1 !" op_ori $end
$var wire 1 "" op_rtype $end
$var wire 1 #" op_slti $end
$var wire 1 $" op_sltiu $end
$var wire 1 %" op_store $end
$var wire 1 &" op_xori $end
$var wire 6 '" opcode [5:0] $end
$var wire 5 (" rd [4:0] $end
$var wire 5 )" rs [4:0] $end
$var wire 5 *" rt [4:0] $end
$var reg 5 +" d_o_addr_rd [4:0] $end
$var reg 5 ," d_o_addr_rs [4:0] $end
$var reg 5 -" d_o_addr_rt [4:0] $end
$var reg 1 ." d_o_alu_src $end
$var reg 1 /" d_o_branch $end
$var reg 1 0" d_o_ce $end
$var reg 6 1" d_o_funct [5:0] $end
$var reg 16 2" d_o_imm [15:0] $end
$var reg 1 3" d_o_memread $end
$var reg 1 4" d_o_memtoreg $end
$var reg 1 5" d_o_memwrite $end
$var reg 6 6" d_o_opcode [5:0] $end
$var reg 1 7" d_o_reg_dst $end
$var reg 1 8" d_o_reg_wr $end
$upscope $end
$scope module r $end
$var wire 5 9" r_addr_in [4:0] $end
$var wire 5 :" r_addr_out1 [4:0] $end
$var wire 5 ;" r_addr_out2 [4:0] $end
$var wire 1 ' r_clk $end
$var wire 32 <" r_data_in [31:0] $end
$var wire 32 =" r_data_out1 [31:0] $end
$var wire 32 >" r_data_out2 [31:0] $end
$var wire 1 ) r_rst $end
$var wire 1 e r_wr_en $end
$var integer 32 ?" i [31:0] $end
$upscope $end
$upscope $end
$scope module es $end
$var wire 5 @" alu_control [4:0] $end
$var wire 32 A" alu_pc [31:0] $end
$var wire 32 B" alu_value [31:0] $end
$var wire 1 C" change_pc $end
$var wire 6 D" es_i_alu_funct [5:0] $end
$var wire 6 E" es_i_alu_op [5:0] $end
$var wire 1 F" es_i_alu_src $end
$var wire 1 G" es_i_branch $end
$var wire 1 H" es_i_ce $end
$var wire 32 I" es_i_data_rs [31:0] $end
$var wire 32 J" es_i_data_rt [31:0] $end
$var wire 16 K" es_i_imm [15:0] $end
$var wire 32 L" es_i_pc [31:0] $end
$var wire 32 M" es_o_alu_pc [31:0] $end
$var wire 1 8 es_o_change_pc $end
$var wire 1 N" take_beq $end
$var wire 1 O" take_bne $end
$var wire 1 P" take_branch $end
$var wire 1 Q" temp_zero $end
$var reg 32 R" es_o_alu_value [31:0] $end
$var reg 1 S" es_o_ce $end
$var reg 6 T" es_o_funct [5:0] $end
$var reg 6 U" es_o_opcode [5:0] $end
$var reg 1 V" es_o_zero $end
$scope module ac $end
$var wire 6 W" ac_i_funct [5:0] $end
$var wire 6 X" ac_i_opcode [5:0] $end
$var reg 5 Y" ac_o_control [4:0] $end
$upscope $end
$scope module a $end
$var wire 1 F" a_i_alu_src $end
$var wire 32 Z" a_i_data_rs [31:0] $end
$var wire 32 [" a_i_data_rt [31:0] $end
$var wire 5 \" a_i_funct [4:0] $end
$var wire 16 ]" a_i_imm [15:0] $end
$var wire 32 ^" a_i_pc [31:0] $end
$var wire 32 _" a_imm [31:0] $end
$var wire 32 `" a_o_data_2 [31:0] $end
$var wire 1 a" funct_add $end
$var wire 1 b" funct_addu $end
$var wire 1 c" funct_and $end
$var wire 1 d" funct_beq $end
$var wire 1 e" funct_bne $end
$var wire 1 f" funct_eq $end
$var wire 1 g" funct_ge $end
$var wire 1 h" funct_geu $end
$var wire 1 i" funct_neq $end
$var wire 1 j" funct_or $end
$var wire 1 k" funct_sll $end
$var wire 1 l" funct_slt $end
$var wire 1 m" funct_sltu $end
$var wire 1 n" funct_sra $end
$var wire 1 o" funct_srl $end
$var wire 1 p" funct_sub $end
$var wire 1 q" funct_xor $end
$var reg 1 r" a_o_change_pc $end
$var reg 32 s" alu_pc [31:0] $end
$var reg 32 t" alu_value [31:0] $end
$upscope $end
$upscope $end
$scope module m $end
$var wire 32 u" alu_value_addr [31:0] $end
$var wire 1 ' m_clk $end
$var wire 1 v" m_i_ce $end
$var wire 32 w" m_i_store_data [31:0] $end
$var wire 32 x" m_o_load_data [31:0] $end
$var wire 1 y" m_rd_en $end
$var wire 1 ) m_rst $end
$var wire 1 z" m_wr_en $end
$var integer 32 {" i [31:0] $end
$upscope $end
$upscope $end
$scope task reset $end
$var integer 32 |" counter [31:0] $end
$upscope $end
$upscope $end
$enddefinitions $end
#0
$dumpvars
b10 |"
b100000 {"
0z"
0y"
b0 x"
b0 w"
0v"
b0 u"
b0 t"
b0 s"
0r"
0q"
0p"
0o"
0n"
0m"
0l"
0k"
0j"
0i"
0h"
0g"
0f"
0e"
0d"
0c"
0b"
1a"
b0 `"
b0 _"
b0 ^"
b0 ]"
b0 \"
b0 ["
b0 Z"
b0 Y"
b0 X"
b0 W"
0V"
b0 U"
b0 T"
0S"
b0 R"
1Q"
0P"
0O"
0N"
b0 M"
b0 L"
b0 K"
b0 J"
b0 I"
0H"
0G"
0F"
b0 E"
b0 D"
0C"
b0 B"
b0 A"
b0 @"
b100000 ?"
b0 >"
b0 ="
b0 <"
b0 ;"
b0 :"
b0 9"
08"
07"
b0 6"
05"
04"
03"
b0 2"
b0 1"
00"
0/"
0."
b0 -"
b0 ,"
b0 +"
b0 *"
b0 )"
b0 ("
b0 '"
0&"
0%"
0$"
0#"
1""
0!"
0~
0}
0|
0{
0z
0y
b0 x
0w
0v
0u
0t
0s
b0 r
b0 q
b0 p
b0 o
b0 n
b0 m
b0 l
b0 k
b0 j
b0 i
b0 h
b0 g
b0 f
0e
0d
b0 c
b0 b
0a
b0 `
0_
b0 ^
0]
0\
b0 [
b0 Z
0Y
b0 X
0W
b0 V
0U
0T
0S
b0 R
b0 Q
0P
b0 O
b0 N
0M
0L
b0 K
0J
0I
b0 H
b0 G
b0 F
b0 E
b0 D
0C
0B
0A
b0 @
b0 ?
b0 >
b0 =
0<
0;
b0 :
b0 9
08
07
b0 6
b0 5
b0 4
03
02
01
b0 0
b0 /
b0 .
b0 -
0,
0+
0*
0)
x(
0'
0&
x%
0$
b0 #
b0 "
b0 !
$end
#5
b100000 {"
1$
1'
#10
b100000 ?"
0$
0'
#15
1&
1)
1$
1'
#20
0$
0'
#25
1\
1]
b100 [
b100 "
b100 >
1%
1(
1$
1'
#30
0$
0'
#35
1_
1T
b1 ^
b1000111010000000000000010100 `
b1000111010000000000000010100 V
b1000 [
b1000 "
b1000 >
b100 K
b100 L"
b100 ^"
1$
1'
#40
0$
0'
#45
b1000 n
b1000 9"
15"
13
1."
1*
10"
1,
b10100 2"
b10100 0
b10100 l
b10 6"
b10 4
b10 m
b1000 -"
b1000 .
b1000 j
b1000 >"
b1000 c
b1000 ;"
b111 ,"
b111 -
b111 i
b111 ="
b111 b
b111 :"
0""
1%"
b10 q
b10100 o
b111 )"
b1000 *"
b10 '"
b10100 r
b10100 x
b1000 K
b1000 L"
b1000 ^"
1Y
1<
b1000111010000000000000010100 Z
b1000111010000000000000010100 =
b1000111010000000000000010100 h
b1000111010000000000000010100 p
b1100 [
b1100 "
b1100 >
b10 ^
b100111001100000000000010100 `
b100111001100000000000010100 V
1$
1'
#50
0$
0'
#55
b110 n
b110 9"
14"
12
13"
11
18"
1e
05"
03
1."
1*
10"
1,
b10100 2"
b10100 0
b10100 l
b1 6"
b1 4
b1 m
b110 -"
b110 .
b110 j
b110 >"
b110 c
b110 ;"
b111 ,"
b111 -
b111 i
b111 ="
b111 b
b111 :"
0Q"
b11011 R"
b11011 6
1~
0%"
b1 q
b110 *"
b1 '"
b10100 `"
b11011 t"
b11011 B"
0V"
0;
1S"
17
b10 U"
b10 :
b11 ^
b1100001000100000000000000100 `
b1100001000100000000000000100 V
b100111001100000000000010100 Z
b100111001100000000000010100 =
b100111001100000000000010100 h
b100111001100000000000010100 p
b10000 [
b10000 "
b10000 >
b1100 K
b1100 L"
b1100 ^"
1J
1z"
1A
1F"
1C
1H"
b10100 G
b10100 K"
b10100 ]"
b10100 _"
b1000 E
b1000 J"
b1000 ["
b1000 w"
b111 D
b111 I"
b111 Z"
b10 H
b10 !
b10 E"
b10 X"
1$
1'
#60
b0 .
b0 j
b0 >"
0$
0'
#65
b10 n
b10 9"
1/"
1+
b10 .
b10 j
b10 >"
04"
02
03"
01
08"
0e
0."
0*
10"
1,
b100 2"
b100 0
b100 l
b11 6"
b11 4
b11 m
b10 -"
b10 c
b10 ;"
b1 ,"
b1 -
b1 i
b1 ="
b1 b
b1 :"
b11011 t"
b11011 B"
1S"
17
b1 U"
b1 :
b11011 R"
b11011 6
0~
1|
b11 q
b100 o
b1 )"
b10 *"
b11 '"
b100 r
b100 x
1P
1v"
b10 R
b11011 N
b11011 u"
b10000 K
b10000 L"
b10000 ^"
1L
0J
0z"
1I
1y"
b0 E
b0 J"
b0 ["
b0 w"
b1 H
b1 !
b1 E"
b1 X"
b1100001000100000000000000100 Z
b1100001000100000000000000100 =
b1100001000100000000000000100 h
b1100001000100000000000000100 p
b10100 [
b10100 "
b10100 >
b100 ^
b1000100101000000100011 `
b1000100101000000100011 V
1$
1'
#70
0$
0'
#75
b1010 n
b1010 9"
18"
1e
17"
1d
b100011 1"
b100011 /
b100011 k
b1010 +"
b1010 f
0/"
0+
10"
1,
b0 2"
b0 0
b0 l
b0 6"
b0 4
b0 m
b10 -"
b10 .
b10 j
b10 >"
b10 c
b10 ;"
b1 ,"
b1 -
b1 i
b1 ="
b1 b
b1 :"
1""
0|
b0 q
1u
b100011 o
b1010 ("
b0 '"
b100011 r
b101000000100011 x
b11011 #
b11011 @
b11011 g
b11011 <"
b10 `"
b11111111111111111111111111111111 t"
b11111111111111111111111111111111 B"
b1111 Y"
0a"
1d"
b1111 @"
b1111 \"
1S"
17
b11 U"
b11 :
b11111111111111111111111111111111 R"
b11111111111111111111111111111111 6
b0 ^
1a
1W
b10000010000010000000001100100 `
b10000010000010000000001100100 V
b1000100101000000100011 Z
b1000100101000000100011 =
b1000100101000000100011 h
b1000100101000000100011 p
b11000 [
b11000 "
b11000 >
b10100 K
b10100 L"
b10100 ^"
0L
0I
0y"
0A
0F"
1B
1G"
b100 G
b100 K"
b100 ]"
b100 _"
b10 E
b10 J"
b10 ["
b10 w"
b1 D
b1 I"
b1 Z"
b11 H
b11 !
b11 E"
b11 X"
b1 R
1$
1'
#80
0$
0'
#85
b1 n
b1 9"
1."
1*
b1100100 2"
b1100100 0
b1100100 l
b100 6"
b100 4
b100 m
18"
1e
07"
0d
10"
1,
b0 1"
b0 /
b0 k
b0 +"
b0 f
b1 -"
b1 .
b1 j
b1 >"
b1 c
b1 ;"
b10 ,"
b10 -
b10 i
b10 ="
b10 b
b10 :"
b11111111111111111111111111111111 #
b11111111111111111111111111111111 @
b11111111111111111111111111111111 g
b11111111111111111111111111111111 <"
b11 t"
b11 B"
1j"
b11 Y"
0a"
0d"
b11 @"
b11 \"
b100011 T"
b100011 9
1S"
17
b0 U"
b0 :
b11 R"
b11 6
0""
1y
b100 q
0u
1w
b100100 o
b10 )"
b1 *"
b0 ("
b100 '"
b100100 r
b1100100 x
b11 R
b11111111111111111111111111111111 N
b11111111111111111111111111111111 u"
bx ?
bx x"
b11000 K
b11000 L"
b11000 ^"
0B
0G"
b0 G
b0 K"
b0 ]"
b0 _"
b100011 F
b100011 D"
b100011 W"
b0 H
b0 !
b0 E"
b0 X"
b10000010000010000000001100100 Z
b10000010000010000000001100100 =
b10000010000010000000001100100 h
b10000010000010000000001100100 p
0\
0]
b11100 [
b11100 "
b11100 >
0_
0T
b1 ^
0a
0W
b1000111010000000000000010100 `
b1000111010000000000000010100 V
1$
1'
#90
b11111111111111111111111111111111 .
b11111111111111111111111111111111 j
b11111111111111111111111111111111 >"
0$
0'
#95
b0 n
b0 9"
08"
0e
0."
0*
00"
0,
b0 2"
b0 0
b0 l
b0 6"
b0 4
b0 m
b0 -"
b0 .
b0 j
b0 >"
b0 c
b0 ;"
b0 ,"
b0 -
b0 i
b0 ="
b0 b
b0 :"
b1100100 `"
b1100110 t"
b1100110 B"
b0 Y"
1a"
0j"
b0 @"
b0 \"
b100 U"
b100 :
1S"
17
b0 T"
b0 9
b1100110 R"
b1100110 6
b11 #
b11 @
b11 g
b11 <"
0Y
0<
1\
1]
b100000 [
b100000 "
b100000 >
b11100 K
b11100 L"
b11100 ^"
1A
1F"
b1100100 G
b1100100 K"
b1100100 ]"
b1100100 _"
b11111111111111111111111111111111 E
b11111111111111111111111111111111 J"
b11111111111111111111111111111111 ["
b11111111111111111111111111111111 w"
b10 D
b10 I"
b10 Z"
b0 F
b0 D"
b0 W"
b100 H
b100 !
b100 E"
b100 X"
b100011 Q
b0 R
b11 N
b11 u"
b0 ?
b0 x"
1$
1'
#100
0$
0'
#105
1Q"
b1100110 #
b1100110 @
b1100110 g
b1100110 <"
b0 `"
b0 t"
b0 B"
0S"
07
b0 U"
b0 :
b0 R"
b0 6
b0 Q
b100 R
b1100110 N
b1100110 u"
bx ?
bx x"
b100000 K
b100000 L"
b100000 ^"
0A
0F"
0C
0H"
b0 G
b0 K"
b0 ]"
b0 _"
b0 E
b0 J"
b0 ["
b0 w"
b0 D
b0 I"
b0 Z"
b0 H
b0 !
b0 E"
b0 X"
b100100 [
b100100 "
b100100 >
1_
1T
b10 ^
b100111001100000000000010100 `
b100111001100000000000010100 V
1$
1'
#110
0$
0'
#115
b110 n
b110 9"
14"
12
13"
11
18"
1e
1."
1*
10"
1,
b10100 2"
b10100 0
b10100 l
b1 6"
b1 4
b1 m
b110 -"
b110 c
b110 ;"
b111 ,"
b111 -
b111 i
b111 ="
b111 b
b111 :"
1~
0y
b1 q
0w
b10100 o
b111 )"
b110 *"
b1 '"
b10100 r
b10100 x
b0 #
b0 @
b0 g
b0 <"
b11 ^
b1100001000100000000000000100 `
b1100001000100000000000000100 V
1Y
1<
b100111001100000000000010100 Z
b100111001100000000000010100 =
b100111001100000000000010100 h
b100111001100000000000010100 p
b101000 [
b101000 "
b101000 >
b100100 K
b100100 L"
b100100 ^"
0P
0v"
b0 R
b0 N
b0 u"
b0 ?
b0 x"
1$
1'
#120
0$
0'
#125
b10 n
b10 9"
0Q"
b11011 R"
b11011 6
1/"
1+
b10 .
b10 j
b10 >"
04"
02
03"
01
08"
0e
0."
0*
10"
1,
b100 2"
b100 0
b100 l
b11 6"
b11 4
b11 m
b10 -"
b10 c
b10 ;"
b1 ,"
b11111111111111111111111111111111 -
b11111111111111111111111111111111 i
b11111111111111111111111111111111 ="
b1 b
b1 :"
b10100 `"
b11011 t"
b11011 B"
0V"
0;
1S"
17
b1 U"
b1 :
0~
1|
b11 q
b100 o
b1 )"
b10 *"
b11 '"
b100 r
b100 x
b101000 K
b101000 L"
b101000 ^"
1L
1I
1y"
1A
1F"
1C
1H"
b10100 G
b10100 K"
b10100 ]"
b10100 _"
b111 D
b111 I"
b111 Z"
b1 H
b1 !
b1 E"
b1 X"
b1100001000100000000000000100 Z
b1100001000100000000000000100 =
b1100001000100000000000000100 h
b1100001000100000000000000100 p
b101100 [
b101100 "
b101100 >
b100 ^
b1000100101000000100011 `
b1000100101000000100011 V
1$
1'
#130
0$
0'
#135
b1010 n
b1010 9"
18"
1e
17"
1d
b100011 1"
b100011 /
b100011 k
b1010 +"
b1010 f
0/"
0+
10"
1,
b0 2"
b0 0
b0 l
b0 6"
b0 4
b0 m
b10 -"
b10 .
b10 j
b10 >"
b10 c
b10 ;"
b1 ,"
b11111111111111111111111111111111 -
b11111111111111111111111111111111 i
b11111111111111111111111111111111 ="
b1 b
b1 :"
1""
0|
b0 q
1u
b100011 o
b1010 ("
b0 '"
b100011 r
b101000000100011 x
b11011 #
b11011 @
b11011 g
b11011 <"
b10 `"
b11111111111111111111111111111101 t"
b11111111111111111111111111111101 B"
b1111 Y"
0a"
1d"
b1111 @"
b1111 \"
1S"
17
b11 U"
b11 :
b11111111111111111111111111111101 R"
b11111111111111111111111111111101 6
b0 ^
1a
1W
b10000010000010000000001100100 `
b10000010000010000000001100100 V
b1000100101000000100011 Z
b1000100101000000100011 =
b1000100101000000100011 h
b1000100101000000100011 p
b110000 [
b110000 "
b110000 >
b101100 K
b101100 L"
b101100 ^"
0L
0I
0y"
0A
0F"
1B
1G"
b100 G
b100 K"
b100 ]"
b100 _"
b10 E
b10 J"
b10 ["
b10 w"
b11111111111111111111111111111111 D
b11111111111111111111111111111111 I"
b11111111111111111111111111111111 Z"
b11 H
b11 !
b11 E"
b11 X"
1P
1v"
b1 R
b11011 N
b11011 u"
1$
1'
#140
0$
0'
#145
b1 n
b1 9"
1."
1*
b1100100 2"
b1100100 0
b1100100 l
b100 6"
b100 4
b100 m
18"
1e
07"
0d
10"
1,
b0 1"
b0 /
b0 k
b0 +"
b0 f
b1 -"
b11111111111111111111111111111111 .
b11111111111111111111111111111111 j
b11111111111111111111111111111111 >"
b1 c
b1 ;"
b10 ,"
b10 -
b10 i
b10 ="
b10 b
b10 :"
b11111111111111111111111111111101 #
b11111111111111111111111111111101 @
b11111111111111111111111111111101 g
b11111111111111111111111111111101 <"
b11111111111111111111111111111111 t"
b11111111111111111111111111111111 B"
1j"
b11 Y"
0a"
0d"
b11 @"
b11 \"
b100011 T"
b100011 9
1S"
17
b0 U"
b0 :
b11111111111111111111111111111111 R"
b11111111111111111111111111111111 6
0""
1y
b100 q
0u
1w
b100100 o
b10 )"
b1 *"
b0 ("
b100 '"
b100100 r
b1100100 x
b11 R
b11111111111111111111111111111101 N
b11111111111111111111111111111101 u"
bx ?
bx x"
b110000 K
b110000 L"
b110000 ^"
0B
0G"
b0 G
b0 K"
b0 ]"
b0 _"
b100011 F
b100011 D"
b100011 W"
b0 H
b0 !
b0 E"
b0 X"
b10000010000010000000001100100 Z
b10000010000010000000001100100 =
b10000010000010000000001100100 h
b10000010000010000000001100100 p
0\
0]
b110100 [
b110100 "
b110100 >
0_
0T
b1 ^
0a
0W
b1000111010000000000000010100 `
b1000111010000000000000010100 V
1$
1'
#150
b11111111111111111111111111111101 .
b11111111111111111111111111111101 j
b11111111111111111111111111111101 >"
0$
0'
#155
b0 n
b0 9"
08"
0e
0."
0*
00"
0,
b0 2"
b0 0
b0 l
b0 6"
b0 4
b0 m
b0 -"
b0 .
b0 j
b0 >"
b0 c
b0 ;"
b0 ,"
b0 -
b0 i
b0 ="
b0 b
b0 :"
b1100100 `"
b1100110 t"
b1100110 B"
b0 Y"
1a"
0j"
b0 @"
b0 \"
b100 U"
b100 :
1S"
17
b0 T"
b0 9
b1100110 R"
b1100110 6
b11111111111111111111111111111111 #
b11111111111111111111111111111111 @
b11111111111111111111111111111111 g
b11111111111111111111111111111111 <"
0Y
0<
1\
1]
b111000 [
b111000 "
b111000 >
b110100 K
b110100 L"
b110100 ^"
1A
1F"
b1100100 G
b1100100 K"
b1100100 ]"
b1100100 _"
b11111111111111111111111111111101 E
b11111111111111111111111111111101 J"
b11111111111111111111111111111101 ["
b11111111111111111111111111111101 w"
b10 D
b10 I"
b10 Z"
b0 F
b0 D"
b0 W"
b100 H
b100 !
b100 E"
b100 X"
b100011 Q
b0 R
b11111111111111111111111111111111 N
b11111111111111111111111111111111 u"
1$
1'
#160
0$
0'
#165
1Q"
b1100110 #
b1100110 @
b1100110 g
b1100110 <"
b0 `"
b0 t"
b0 B"
0S"
07
b0 U"
b0 :
b0 R"
b0 6
b0 Q
b100 R
b1100110 N
b1100110 u"
b111000 K
b111000 L"
b111000 ^"
0A
0F"
0C
0H"
b0 G
b0 K"
b0 ]"
b0 _"
b0 E
b0 J"
b0 ["
b0 w"
b0 D
b0 I"
b0 Z"
b0 H
b0 !
b0 E"
b0 X"
b111100 [
b111100 "
b111100 >
1_
1T
b10 ^
b100111001100000000000010100 `
b100111001100000000000010100 V
1$
1'
#170
0$
0'
#175
b110 n
b110 9"
14"
12
13"
11
18"
1e
1."
1*
10"
1,
b10100 2"
b10100 0
b10100 l
b1 6"
b1 4
b1 m
b110 -"
b110 c
b110 ;"
b111 ,"
b111 -
b111 i
b111 ="
b111 b
b111 :"
1~
0y
b1 q
0w
b10100 o
b111 )"
b110 *"
b1 '"
b10100 r
b10100 x
b0 #
b0 @
b0 g
b0 <"
b11 ^
b1100001000100000000000000100 `
b1100001000100000000000000100 V
1Y
1<
b100111001100000000000010100 Z
b100111001100000000000010100 =
b100111001100000000000010100 h
b100111001100000000000010100 p
b1000000 [
b1000000 "
b1000000 >
b111100 K
b111100 L"
b111100 ^"
0P
0v"
b0 R
b0 N
b0 u"
b0 ?
b0 x"
1$
1'
#180
0$
0'
#185
b10 n
b10 9"
0Q"
b11011 R"
b11011 6
1/"
1+
b10 .
b10 j
b10 >"
04"
02
03"
01
08"
0e
0."
0*
10"
1,
b100 2"
b100 0
b100 l
b11 6"
b11 4
b11 m
b10 -"
b10 c
b10 ;"
b1 ,"
b11111111111111111111111111111101 -
b11111111111111111111111111111101 i
b11111111111111111111111111111101 ="
b1 b
b1 :"
b10100 `"
b11011 t"
b11011 B"
0V"
0;
1S"
17
b1 U"
b1 :
0~
1|
b11 q
b100 o
b1 )"
b10 *"
b11 '"
b100 r
b100 x
b1000000 K
b1000000 L"
b1000000 ^"
1L
1I
1y"
1A
1F"
1C
1H"
b10100 G
b10100 K"
b10100 ]"
b10100 _"
b111 D
b111 I"
b111 Z"
b1 H
b1 !
b1 E"
b1 X"
b1100001000100000000000000100 Z
b1100001000100000000000000100 =
b1100001000100000000000000100 h
b1100001000100000000000000100 p
b1000100 [
b1000100 "
b1000100 >
b100 ^
b1000100101000000100011 `
b1000100101000000100011 V
1$
1'
#190
0$
0'
#195
b1010 n
b1010 9"
18"
1e
17"
1d
b100011 1"
b100011 /
b100011 k
b1010 +"
b1010 f
0/"
0+
10"
1,
b0 2"
b0 0
b0 l
b0 6"
b0 4
b0 m
b10 -"
b10 .
b10 j
b10 >"
b10 c
b10 ;"
b1 ,"
b11111111111111111111111111111101 -
b11111111111111111111111111111101 i
b11111111111111111111111111111101 ="
b1 b
b1 :"
1""
0|
b0 q
1u
b100011 o
b1010 ("
b0 '"
b100011 r
b101000000100011 x
b11011 #
b11011 @
b11011 g
b11011 <"
b10 `"
b11111111111111111111111111111011 t"
b11111111111111111111111111111011 B"
b1111 Y"
0a"
1d"
b1111 @"
b1111 \"
1S"
17
b11 U"
b11 :
b11111111111111111111111111111011 R"
b11111111111111111111111111111011 6
b0 ^
1a
1W
b10000010000010000000001100100 `
b10000010000010000000001100100 V
b1000100101000000100011 Z
b1000100101000000100011 =
b1000100101000000100011 h
b1000100101000000100011 p
b1001000 [
b1001000 "
b1001000 >
b1000100 K
b1000100 L"
b1000100 ^"
0L
0I
0y"
0A
0F"
1B
1G"
b100 G
b100 K"
b100 ]"
b100 _"
b10 E
b10 J"
b10 ["
b10 w"
b11111111111111111111111111111101 D
b11111111111111111111111111111101 I"
b11111111111111111111111111111101 Z"
b11 H
b11 !
b11 E"
b11 X"
1P
1v"
b1 R
b11011 N
b11011 u"
1$
1'
#200
0$
0'
#205
b1 n
b1 9"
1."
1*
b1100100 2"
b1100100 0
b1100100 l
b100 6"
b100 4
b100 m
18"
1e
07"
0d
10"
1,
b0 1"
b0 /
b0 k
b0 +"
b0 f
b1 -"
b11111111111111111111111111111101 .
b11111111111111111111111111111101 j
b11111111111111111111111111111101 >"
b1 c
b1 ;"
b10 ,"
b10 -
b10 i
b10 ="
b10 b
b10 :"
b11111111111111111111111111111011 #
b11111111111111111111111111111011 @
b11111111111111111111111111111011 g
b11111111111111111111111111111011 <"
b11111111111111111111111111111111 t"
b11111111111111111111111111111111 B"
1j"
b11 Y"
0a"
0d"
b11 @"
b11 \"
b100011 T"
b100011 9
1S"
17
b0 U"
b0 :
b11111111111111111111111111111111 R"
b11111111111111111111111111111111 6
0""
1y
b100 q
0u
1w
b100100 o
b10 )"
b1 *"
b0 ("
b100 '"
b100100 r
b1100100 x
b11 R
b11111111111111111111111111111011 N
b11111111111111111111111111111011 u"
bx ?
bx x"
b1001000 K
b1001000 L"
b1001000 ^"
0B
0G"
b0 G
b0 K"
b0 ]"
b0 _"
b100011 F
b100011 D"
b100011 W"
b0 H
b0 !
b0 E"
b0 X"
b10000010000010000000001100100 Z
b10000010000010000000001100100 =
b10000010000010000000001100100 h
b10000010000010000000001100100 p
0\
0]
b1001100 [
b1001100 "
b1001100 >
0_
0T
b1 ^
0a
0W
b1000111010000000000000010100 `
b1000111010000000000000010100 V
1$
1'
#210
b11111111111111111111111111111011 .
b11111111111111111111111111111011 j
b11111111111111111111111111111011 >"
0$
0'
